…
Example: Make a bar chart that shows __average leaf length__ for each accession (acs) and trt combination.  

```r
# calculate average leaf length for each combination:
leaf.mean.sem <- tomato %>%
  group_by(acs, trt) %>%
  summarize(mean=mean(int3, na.rm=TRUE), sem=sem(int3, na.rm=TRUE))
leaf.mean.sem
```

```
## # A tibble: 72 x 4
## # Groups:   acs [?]
##    acs    trt    mean   sem
##    <chr>  <chr> <dbl> <dbl>
##  1 LA1028 H      4.72 0.564
##  2 LA1028 L      6.97 0.642
##  3 LA1305 H      5.33 0.743
##  4 LA1305 L     11.5  2.05 
##  5 LA1306 H      3.93 0.283
##  6 LA1306 L     11.8  0.899
##  7 LA1316 H      3.55 0.383
##  8 LA1316 L      7.68 0.747
##  9 LA1317 H      7.69 0.618
## 10 LA1317 L     15.4  1.29 
## # ... with 62 more rows
```
…
